https://gitlab.com/CodeArtisan/codeabbey/raw/master/problem_180/solution.rkt
https://raw.githubusercontent.com/TamasKiss/Game_of_Sticks/master/Game_of_sticks.c
https://raw.githubusercontent.com/josereyesjrz/GameOfSticks/master/GameOfSticks.cpp
https://raw.githubusercontent.com/jameswei1/Game-of-Sticks-AI/master/AI%20Game/src/Main.java
