https://www.youtube.com/watch?v=4Wtd82ahVgY
https://www.youtube.com/watch?v=lm8Dr2U17XM
https://www.youtube.com/watch?v=zC7EmF1UYE8
https://www.youtube.com/watch?v=NqXFloRpx4Y
http://www.amitghosh.net/hts-realistic-mission-12-solution/
https://www.aldeid.com/wiki/Hackthissite/Realistic/Level12
