https://raw.githubusercontent.com/adityagupta1089/Codeforces-Solutions/master/P462A.java
https://raw.githubusercontent.com/Waqar-107/Codeforces/master/A-set/462A.%20Appleman%20and%20Easy%20Task.py
https://raw.githubusercontent.com/sreejithsankar55/Codeforces/master/462A.cpp
