https://cryptocult.wordpress.com/cyber-challenges/enigma-group-solutions/variable-manipulation/
https://raw.githubusercontent.com/ThaWeatherman/eg_solutions/master/basics/var_manip/manip_6.txt
https://raw.githubusercontent.com/luceatnobis/challenges/master/enigmagroup.org/var/7/rename.c
