https://raw.githubusercontent.com/ShrikantJadhav/HackerRank-Solutions/master/MaximizingXOR.cpp
https://raw.githubusercontent.com/mattspaulding/hacker-rank/master/HackerRank/Algorithms/Warmup/MaximizingXor.cs
https://raw.githubusercontent.com/danhenriquesc/hackerrank/master/algorithms/bit_manipulation/maximizing_xor.php
https://raw.githubusercontent.com/rofrol/rust-hackerrank/master/src/bin/maximizing-xor.rs
https://raw.githubusercontent.com/MaskRay/HackerRank/master/maximizing-xor.rb
