https://raw.githubusercontent.com/chrisdfrey/code-abbey-solutions/master/base-32-encoding.py
https://raw.githubusercontent.com/bbortt/assembly-binary-2-base32/master/base32enc.asm
https://raw.githubusercontent.com/TypeCtrl/ts-base32/master/src/index.ts
https://raw.githubusercontent.com/dnsimple/base32_erlang/master/src/base32.erl
https://raw.githubusercontent.com/emn178/hi-base32/master/src/base32.js
https://raw.githubusercontent.com/wiry-net/Wiry.Base32/master/src/Wiry.Base32/Base32Encoding.cs
https://raw.githubusercontent.com/noumar/base32/master/src/base32.cr
https://raw.githubusercontent.com/pxqr/base32-bytestring/master/src/Data/ByteString/Base32.hs
https://raw.githubusercontent.com/madebits/cpp-base32/master/Base32.cpp
https://raw.githubusercontent.com/hargettp/cl-base32/master/base32.lisp
https://raw.githubusercontent.com/tuupola/base32/master/src/Base32.php
https://raw.githubusercontent.com/WWelna/Base32/master/b32.c
https://exercism.io/tracks/crystal/exercises/gigasecond/solutions/92f98faab30e47f1b00e7c890571f814
https://exercism.io/tracks/d/exercises/gigasecond/solutions/992d3e2825ec4f0baa6ba79d65f22b6c
https://exercism.io/tracks/elixir/exercises/gigasecond/solutions/569722e2cee3437f992fdf7e511910e2
https://exercism.io/tracks/fsharp/exercises/gigasecond/solutions/b80b1b088fd249a89fc126a7b8388e95
https://exercism.io/tracks/julia/exercises/gigasecond/solutions/d0a625aef26c48ceaf8861bbd40ad6ea
https://exercism.io/tracks/kotlin/exercises/gigasecond/solutions/f2ac057ffca04a9e9ff3cd6f7a6ccbf5
https://exercism.io/tracks/php/exercises/gigasecond/solutions/7c4d5b5f250a4503b2f5dd677c23743d
https://exercism.io/tracks/swift/exercises/gigasecond/solutions/f663dca9eeb5463ea3f9982f602c1542
https://exercism.io/tracks/nim/exercises/gigasecond/solutions/2807a036e6834df2bc6aceaac56315a3
https://codeday.me/es/qa/20190416/508735.html
https://stackoverflow.com/questions/29588892/wandering-star-codeabbey-task
