https://raw.githubusercontent.com/rootulp/exercism/master/java/bob/src/main/java/Bob.java
https://exercism.io/tracks/python/exercises/bob/solutions/ea83757173ba476482659fee6e2e7116
https://exercism.io/tracks/csharp/exercises/bob/solutions/63b7baacc3ad4c6ab2fe5ed3e782aa3b
https://exercism.io/tracks/php/exercises/bob/solutions/08ceaaf87db6477c8e77a211ada0523a
https://raw.githubusercontent.com/tfausak/exercism-solutions/master/javascript/bob/bob.js
https://exercism.io/tracks/erlang/exercises/bob/solutions/3707b810d1854fc9907adf06b54304bc
https://exercism.io/tracks/scala/exercises/bob/solutions/40fd520559eb459d813456c8169e4ebf
https://exercism.io/tracks/perl5/exercises/bob/solutions/2c88ba2a8d084d502783bafa
https://exercism.io/tracks/cpp/exercises/bob/solutions/
https://exercism.io/tracks/ruby/exercises/bob/solutions/a93411728d064276b8fddde8a4757d4e
https://exercism.io/tracks/bash/exercises/bob/solutions/eb1f7e4d419e4fb0bef82bae79147e6b
https://exercism.io/tracks/clojure/exercises/bob/solutions/fd7af338abae4847818f100b7f7370ec
https://exercism.io/tracks/coffeescript/exercises/bob/solutions/14fcf827dafa44968976572aaeec14e8
https://exercism.io/tracks/common-lisp/exercises/bob/solutions/f60fc457565e44f4a3571cd00bbfdc82
https://exercism.io/tracks/crystal/exercises/bob/solutions/26d9d3b1a51f447e8e94ab1fbc175572
https://exercism.io/tracks/d/exercises/bob/solutions/9cb23a4c213e4bf4b97bdffff9b557a6
https://exercism.io/tracks/dart/exercises/bob/solutions/450a251fc4894ee69cbc1c8a78564ee2
https://exercism.io/tracks/elixir/exercises/bob/solutions/98eb70c5cfd1443c8ceab8dbc0835ea7
https://exercism.io/tracks/elm/exercises/bob/solutions/3743f6cf6c73414590b5069a0922021d
https://exercism.io/tracks/elisp/exercises/bob/solutions/6c586ba6dc28409f9dbba0f57a195c65
https://exercism.io/tracks/rust/exercises/bob/solutions/b8ef2ba28d6a4534a629798571d4a6da
https://exercism.io/tracks/lua/exercises/bob/solutions/3088e42626ee47ea8fafaf72ddd29f8a
https://exercism.io/tracks/c/exercises/bob/solutions/c5f0ff3aaaa74c81baac2715875872b5
https://exercism.io/tracks/ocaml/exercises/bob/solutions/d2723fbf631b4ba7864dbb6f4e7d67c3
https://exercism.io/tracks/kotlin/exercises/bob/solutions/59fd1c2d96c74c67957325fbe180fa9a
https://exercism.io/tracks/swift/exercises/bob/solutions/8a9930e609c14779baaf6d6efb3c2a52
https://exercism.io/tracks/vimscript/exercises/bob/solutions/771fe277aeca4ea589f28ef7a70e85ce
https://exercism.io/tracks/objective-c/exercises/bob/solutions/0da36b7e9a6e4d0f82803898f29725d9
https://exercism.io/tracks/go/exercises/bob/solutions/79b9b0c0208947b8ae54132de1329f37
https://exercism.io/tracks/haskell/exercises/bob/solutions/6d0592eac14341f28b2ba6c3445fb982
https://exercism.io/tracks/groovy/exercises/bob/solutions/4769181296f84bd987cab0c84646ebe0
https://exercism.io/tracks/delphi/exercises/bob/solutions/5cddde56a25f40acbbae8946c361b2ad
https://exercism.io/tracks/fsharp/exercises/bob/solutions/4d85390fb7b140179337034e5b4c1f20
