https://raw.githubusercontent.com/MaskRay/HackerRank/master/changing-bits.cc
https://raw.githubusercontent.com/havelessbemore/hackerrank/master/algorithms/bit_manipulation/changing-bits.java
https://raw.githubusercontent.com/wlamond/hr_change_bits/master/changingbits.py
