https://infosecaddicts.com/bypass-pattern-locks-android/
https://resources.infosecinstitute.com/android-forensics-cracking-the-pattern-lock-protection/#gref
https://greysec.net/showthread.php?tid=555
https://github.com/MGF15/P-Decode
https://github.com/AnimeshShaw/AndroidGestureCrack
https://gist.github.com/ducphanduyagentp/9968516
https://www.sniferl4bs.com/2014/11/analisis-forense-android-ii-rompiendo.html
http://uberskill.blogspot.com/2012/08/cracking-android-gesture-patterns.html
https://hub.packtpub.com/mobile-phone-forensics-first-step-android-forensics/
https://www.youtube.com/watch?v=F1DBygGD3Qc
