https://raw.githubusercontent.com/charles-wangkai/hackerrank/master/sherlock-and-anagrams/Solution.java
https://raw.githubusercontent.com/derekhh/HackerRank/master/sherlock-and-anagrams.cpp
https://raw.githubusercontent.com/MaskRay/HackerRank/master/sherlock-and-anagrams.py
https://raw.githubusercontent.com/yenshan/play_clojure/02e7fa4be274dbcf70620dafdee57e77c2be9389/hackerrank/src/hackerrank/interview_preparation_kit/dictionaries_and_hashmaps/sherlock_and_anagrams.clj

