https://raw.githubusercontent.com/yurket/hackerorg/master/130_didactic_text2/solution
https://raw.githubusercontent.com/charles-wangkai/hacker.org/master/challenge/DidacticText2.py
https://raw.githubusercontent.com/luceatnobis/challenges/master/hacker.org/didactic_text_2/DidacticText2.java
