https://www.hackplayers.com/2018/02/htb-write-up-shocker.html
https://github.com/Hackplayers/hackthebox-writeups/blob/master/machines/Shocker/drx51-shocker.pdf
https://www.youtube.com/watch?v=IBlTdguhgfY
https://www.youtube.com/watch?v=DhlNO97IztU
https://drive.google.com/file/d/194UtCk0hZQhRsFRPaUwFpwV1ghIk91EN/view
https://www.hackingarticles.in/hack-the-box-challenge-shocker-walkthrough/
