https://www.youtube.com/watch?v=eL-oqj1uS8Q
https://alexandervoidstar.wordpress.com/2015/07/25/hackthis-basic-level-1/
http://liberte-informatique.blogspot.com.co/2013/04/hackthis-basic-level-1.html
https://www.youtube.com/watch?v=IhO7IADxiWM
https://www.youtube.com/watch?v=9BUwAh1FibI
https://www.youtube.com/watch?v=rr-nQ5JblD0
https://www.youtube.com/watch?v=j5RV4Tc5-MY
http://sjbuzz.net/video/watch/vid019BUwAh1FibI
http://sjbuzz.net/video/watch/vid01xIfR7-tzYLo
http://sjbuzz.net/video/watch/vid01-fO-QXMcM7A
http://sjbuzz.net/video/watch/vid01j5RV4Tc5-MY
http://sjbuzz.net/video/watch/vid01IhO7IADxiWM
https://blog.laphets.com/2017/01/07/HackThis%20Solutions/
https://hackinblood.lasermark.co/basic-hackthis-co-uk-2/
https://medium.com/@thereallulz/write-up-hackthis-main-basic-all-levels-by-thereallulz-4c5dac3b0545
https://www.youtube.com/watch?v=at4B_UMM0wM
https://qkqhxla1.tistory.com/232
https://raw.githubusercontent.com/james9909/PracticeCTF/master/HackThis/Basic-1/Solution.txt
