https://www.youtube.com/watch?v=1_9D_XQFNLk
http://5h1vang.blogspot.com.co/2013/06/hackthissiteorg-basic-challenge-4.html
http://www.amitghosh.net/hts-basic-mission-4-solution/
https://0x1gab.com/2016/05/27/hackthissite-basic-challenge-level-3-4-5/
https://es.slideshare.net/ciskosv/hackthissite-3402645
https://www.youtube.com/watch?v=I6e8lRUXsog
https://www.youtube.com/watch?v=Y5SwVHFDj6A&feature=youtu.be&t=5m46s
https://raw.githubusercontent.com/USCGA/writeups/master/hack_this_site/basic_missions/level4/README.md
http://truemiller.com/2017/09/hack-this-site-all-basic-solutions/#basic_4
https://github.com/attilathedud/HackThisSite/tree/master/Basic
https://www.youtube.com/watch?v=m8ZuYHbaN1A
https://www.youtube.com/watch?v=6BhdeORoLKA&list=PL38E72D34562DC6A8&index=4
