https://www.mathblog.dk/project-euler-problem-4/
https://raw.githubusercontent.com/nayuki/Project-Euler-solutions/master/haskell/p004.hs
https://raw.githubusercontent.com/nayuki/Project-Euler-solutions/master/java/p004.java
https://raw.githubusercontent.com/nayuki/Project-Euler-solutions/master/mathematica/p004.mathematica
https://raw.githubusercontent.com/smacke/project-euler/master/python/4.py
https://raw.githubusercontent.com/zsiciarz/euler.rs/master/src/solutions/problem4.rs
https://raw.githubusercontent.com/zimpha/competitive-programming/master/project-euler/volume01/4.cc
