https://raw.githubusercontent.com/ysmolsky/cryptopals-matasano-solutions/master/10/main.go
https://raw.githubusercontent.com/Daeinar/cryptopals/master/src/c10.rs
https://raw.githubusercontent.com/jaybosamiya/cryptopals-solutions/master/set2/10/run.py
https://raw.githubusercontent.com/akalin/cryptopals-python3/master/challenge10.py
https://raw.githubusercontent.com/technion/matasano_challenge/master/set2/chal10/chal10.rb
