https://raw.githubusercontent.com/Daeinar/cryptopals/master/src/c26.rs
https://raw.githubusercontent.com/jaybosamiya/cryptopals-solutions/master/set4/26/AES_128.py
https://raw.githubusercontent.com/jaybosamiya/cryptopals-solutions/master/set4/26/run.py
https://raw.githubusercontent.com/jaybosamiya/cryptopals-solutions/master/set4/26/oracles.py
https://raw.githubusercontent.com/akalin/cryptopals-python3/master/challenge26.py
https://raw.githubusercontent.com/technion/matasano_challenge/master/set4/chal26/chal26.rb
