https://www.youtube.com/watch?v=Iwd7C6fx2fw
https://www.youtube.com/watch?v=q920I6HbFdo
https://www.youtube.com/watch?v=ufPIQVpk6Fw
http://www.erogol.com/sql-injection-hack-this-site-realistic-mission-2/
http://4allgeeks.blogspot.com.co/2010/10/hackthissite-realistic-mission-2.html
http://www.amitghosh.net/hts-realistic-mission-2-solution/
http://www.gensale.net/hts-basic-level-5/
https://null-byte.wonderhowto.com/news/goodnight-byte-hackthissite-realistic-2-real-hacking-simulations-0133066/
https://www.youtube.com/watch?v=_j0DiqqT9oo
https://www.aldeid.com/wiki/Hackthissite/Realistic/Level2
