https://www.mathblog.dk/project-euler-problem-3/
https://raw.githubusercontent.com/nayuki/Project-Euler-solutions/master/haskell/p003.hs
https://raw.githubusercontent.com/nayuki/Project-Euler-solutions/master/java/p003.java
https://raw.githubusercontent.com/nayuki/Project-Euler-solutions/master/mathematica/p003.mathematica
https://raw.githubusercontent.com/smacke/project-euler/master/python/3.py
https://raw.githubusercontent.com/zsiciarz/euler.rs/master/src/solutions/problem3.rs
https://raw.githubusercontent.com/zimpha/competitive-programming/master/project-euler/volume01/3.cc
