https://www.youtube.com/watch?v=iTnTzc23SRQ
https://www.hackthissite.org/missions/basic/1/
http://www.amitghosh.net/hts-basic-mission-1-solution/
https://0x1gab.com/2016/05/25/hackthissite-basic-challenge-level-1-introduction/
https://es.slideshare.net/ciskosv/hackthissite-3402645
https://www.youtube.com/watch?v=yxsq6mqBT-Q
https://www.youtube.com/watch?v=jeAxjJcGzO0
https://www.youtube.com/watch?v=y4tkSdMHfks
https://www.youtube.com/watch?v=uXvsguWKm-8
https://www.youtube.com/watch?v=mAQTXX24lns
https://www.youtube.com/watch?v=Y5SwVHFDj6A&feature=youtu.be&t=2s
http://blog.abhishekg.com/2011/12/basic-1-the-idiot-test/
https://github.com/attilathedud/HackThisSite/blob/master/Basic/README.md
https://github.com/DivyanshuSahu/HackThisSite/blob/master/Basic/files/1solved.png
https://raw.githubusercontent.com/USCGA/writeups/master/hack_this_site/basic_missions/level1/README.md
http://truemiller.com/2017/09/hack-this-site-all-basic-solutions/#basic_1
https://www.youtube.com/watch?v=tkKGFCnJbjk
https://www.youtube.com/watch?v=SImO2Y4SObo&list=PL38E72D34562DC6A8
