https://medium.com/@3wem/dc-16-fortress-writeup-ac9cc16261bf
https://github.com/Hamza-Megahed/CTFs/blob/master/DC416-baffle/README
https://github.com/zionspike/vulnhub-writeup/blob/master/DC416-baffle/kapi-note.md
https://rgolebiowski.blogspot.co.uk/2017/02/dc1462016-fortress-challenge.html
https://habrahabr.ru/post/318860/
https://firefart.at/post/vulnhub_dc416_fortress/
https://firefart.at/post/vulnhub_dc416_dick_dastardly/
https://habrahabr.ru/post/319204/
https://habrahabr.ru/post/318998/
https://t0w3ntum.com/2017/01/07/baffle/
https://firefart.at/post/vulnhub_dc416_baffle/
https://mrthaggar.blogspot.co.uk/2016/12/baffle-dc416-2016-vulnhub-solution.html
http://www.hackingarticles.in/hack-fortress-vm-ctf-challenge/
https://habrahabr.ru/post/318372/
https://rootaccessblog.wordpress.com/2016/12/20/vulnhubdc416-dickdastardly/
https://firefart.at/post/vulnhub_dc416_basement/
https://cqdeof.blogspot.co.uk/2016/12/vulnhub-walkthrough-dc416-dick-dastardly.html
https://rootaccessblog.wordpress.com/2016/12/18/vulnhub-dc416-fortress/
https://g0blin.co.uk/dick-dastardly-vulnhub-writeup/
https://www.arashparsa.com/2016/12/12/dc416-dick-dastardly-walkthrough
http://blog.cyberdecode.com/2016/12/11/dc416-ctf-dick-dastardly-walkthrough/
http://www.mrb3n.com/?p=489
