https://raw.githubusercontent.com/nayuki/Project-Euler-solutions/master/java/p089.java
https://raw.githubusercontent.com/nayuki/Project-Euler-solutions/master/python/p089.py
https://www.mathblog.dk/project-euler-89-develop-a-method-to-express-roman-numerals-in-minimal-form/
