https://raw.githubusercontent.com/svanegas/programming_solutions/master/Codeforces/221A%20-%20Little%20Elephant%20and%20Function/221A.cpp
https://raw.githubusercontent.com/o-panda-o/MySolutions/master/Implementation/Code_221A_LittleElephantAndFunction.java
https://raw.githubusercontent.com/changyuheng/codeforces-solutions/master/221a.py
