https://resources.infosecinstitute.com/temple-of-doom-ctf-walkthrough-part-1
https://resources.infosecinstitute.com/temple-of-doom-ctf-walkthrough-part-2
https://www.youtube.com/watch?v=oZoqVrQd1Y0
https://ohexfortyone.com/2018/07/temple-of-doom-1-boot-to-root-vm-walkthrough.html
https://blaksec.com/index.php?title=Temple_of_Doom:_1_~_VulnHub_-_CTF_Walkthrough
https://hackso.me/temple-of-doom-1-walkthrough/
http://www.hackingarticles.in/hack-the-temple-of-doom-ctf-challenge/
https://l3nblog.wordpress.com/2018/07/14/temple-of-doom-vulnhub-walkthrough/
https://pax0r.com/temple-of-doom-walktrough/
