https://nopsrus.blogspot.com.co/2012/07/solution-for-net-forcenl-level-401.html
https://raw.githubusercontent.com/djcomidi/netforce/master/exploits/level401/solution.txt
https://raw.githubusercontent.com/luceatnobis/challenges/master/net-force.nl/exploit1/hash
