https://www.mathblog.dk/project-euler-14/
https://raw.githubusercontent.com/nayuki/Project-Euler-solutions/master/java/p014.java
https://raw.githubusercontent.com/nayuki/Project-Euler-solutions/master/mathematica/p014.mathematica
https://raw.githubusercontent.com/kdungs/euler/master/014/euler_14.py
https://raw.githubusercontent.com/zsiciarz/euler.rs/master/src/solutions/problem14.rs
https://raw.githubusercontent.com/zimpha/competitive-programming/master/project-euler/volume01/14.cc
https://raw.githubusercontent.com/nayuki/Project-Euler-solutions/blob/master/haskell/p014.hs
