https://raw.githubusercontent.com/ysmolsky/cryptopals-matasano-solutions/master/16/main.go
https://raw.githubusercontent.com/Daeinar/cryptopals/master/src/c16.rs
https://raw.githubusercontent.com/jaybosamiya/cryptopals-solutions/master/set2/16/run.py
https://raw.githubusercontent.com/akalin/cryptopals-python3/master/challenge16.py
https://raw.githubusercontent.com/technion/matasano_challenge/master/set2/chal16/chal16.rb
