https://raw.githubusercontent.com/RyanFehr/HackerRank/master/Algorithms/Implementation/Sequence%20Equation/Solution.java
https://raw.githubusercontent.com/somallg/hacker-rank/b3cdca50e156fb22c68147f3a4927c31dded1b06/packages/hackerrank/algorithms/implementation/permutation-equation/permutation-equation.spec.js

