https://www.mathblog.dk/project-euler-problem-5/
https://raw.githubusercontent.com/nayuki/Project-Euler-solutions/master/haskell/p005.hs
https://raw.githubusercontent.com/nayuki/Project-Euler-solutions/master/java/p005.java
https://raw.githubusercontent.com/nayuki/Project-Euler-solutions/master/mathematica/p005.mathematica
https://raw.githubusercontent.com/smacke/project-euler/master/python/5.py
https://raw.githubusercontent.com/zsiciarz/euler.rs/master/src/solutions/problem5.rs
