https://raw.githubusercontent.com/nikzsaz/Codeforces-solution/master/282A-Bit%2B%2B.cpp
https://raw.githubusercontent.com/yeicol/CodeForces/master/CF282ABit.java
https://raw.githubusercontent.com/changyuheng/codeforces-solutions/master/282a.py
