https://raw.githubusercontent.com/igor-kutepov/codeabbey/master/src/main/java/com/kutepov/samples/codeabbey/GraphGenerator.java
https://raw.githubusercontent.com/JesseClarkND/codeabbey_in_C-NET/master/Graph%20Generator
https://raw.githubusercontent.com/chrisdfrey/code-abbey-solutions/master/graph-generator.py
