https://raw.githubusercontent.com/mpillar/codeeval/master/2-hard/string-list/main.py
https://raw.githubusercontent.com/erdennis13/code-eval-scripts/master/string-list.rb
https://gist.githubusercontent.com/yuheiomori/08904197f7543b7ecaca/raw/193b0195b2dbd6b4734f03a50f6d49021fda4510/main.go
