https://github.com/Hackplayers/hackthebox-writeups/blob/master/machines/Stratosphere/Stratosphere-manulqwerty.pdf
https://github.com/Hackplayers/hackthebox-writeups/blob/master/machines/Stratosphere/artikrh-stratosphere.pdf
https://github.com/Hackplayers/hackthebox-writeups/blob/master/machines/Stratosphere/drx51-stratosphere.pdf
https://github.com/Hackplayers/hackthebox-writeups/blob/master/machines/Stratosphere/pimmytrousers-stratosphere.pdf
https://medium.com/@DRX_Sicher/walkthrough-stratosphere-htb-2db8f4d4f79c
https://www.secjuice.com/hackthebox-stratosphere-write-up/
https://zineausa.com/blog/2018/09/hackthebox-stratosphere-writeup/
https://kpaxindustries.github.io/hackthebox/2018/09/04/Stratosphere.html
https://www.youtube.com/watch?v=uMwcJQcUnmY
https://www.youtube.com/watch?v=J36iJ5SZ7GU
https://www.absolomb.com/2018-09-01-HackTheBox-Stratosphere/
https://www.hackingarticles.in/hack-the-box-stratospherewalkthrough/
