https://github.com/CyrilP/hax.tor
https://raw.githubusercontent.com/luceatnobis/challenges/master/hax.tor.hu/14/hashes
https://gist.githubusercontent.com/ppshobi/c412a6fb3f480b233bdc5e7b22ef4d09/raw/910d7fed850ab3a58e00d992b223c4accfee7c20/hax%2520tor%2520hu%2520level%252014%2520
