https://raw.githubusercontent.com/nayuki/Project-Euler-solutions/master/java/p096.java
https://raw.githubusercontent.com/nayuki/Project-Euler-solutions/master/python/p096.py
https://www.mathblog.dk/project-euler-96-su-doku/
