22
720 2772 1324
1614 843 2635
332 263 133
255 816 470
1817 4388 982
1439 969 809
1073 2038 602
445 495 656
2250 525 968
1248 2908 685
836 722 810
198 541 282
867 435 1255
869 641 1382
481 479 371
142 261 559
1528 940 1754
596 1208 560
724 279 417
1947 871 793
986 1446 1901
235 243 419
