https://raw.githubusercontent.com/aisthesis/hacker-rank/master/src/closest-numbers.c
https://raw.githubusercontent.com/BlakeBrown/HackerRank-Solutions/master/Algorithms/Sorting/Closest%20Numbers.cpp
https://raw.githubusercontent.com/RyanFehr/HackerRank/master/Algorithms/Sorting/Closest%20Numbers/Solution.cs
https://raw.githubusercontent.com/charles-wangkai/hackerrank/master/closest-number/Solution.java
https://gist.githubusercontent.com/vipickering/6552366/raw/ac10551ca627d2d3bd4f14e1f3bc39f2fdf412c1/closestNumberArray.js
https://raw.githubusercontent.com/bthemad/hackerrank/master/algo/arrays_and_sorting/closest-numbers.py
https://raw.githubusercontent.com/rootulp/hackerrank/master/ruby/closest_number.rb
http://pidanic.com/en/blog/hackerrank-closest-numbers/#scala
