https://raw.githubusercontent.com/Daeinar/cryptopals/master/src/c20.rs
https://raw.githubusercontent.com/jaybosamiya/cryptopals-solutions/master/set3/20/run.py
https://raw.githubusercontent.com/jaybosamiya/cryptopals-solutions/master/set3/20/xor_crack.py
https://raw.githubusercontent.com/jaybosamiya/cryptopals-solutions/master/set3/20/AES_128.py
https://raw.githubusercontent.com/akalin/cryptopals-python3/master/challenge20.py
https://raw.githubusercontent.com/technion/matasano_challenge/master/set3/chal20/chal20.rb
