https://alexandervoidstar.wordpress.com/2015/09/05/hackthis-intermediate-level-6/
https://www.youtube.com/watch?v=mu_IUQYGQ40
https://www.youtube.com/watch?v=usfPclwIEOs
https://www.youtube.com/watch?v=Jw3eOuROpBc
