https://raw.githubusercontent.com/anomen-s/programming-challenges/master/root-me.org/Web-Server/Weak-password/notes.txt
https://thinbashane.wordpress.com/2015/11/05/root-me-web-server-weak-password/
http://hackinblood.lasermark.co/weak-password-root-me/
https://gotheflag.blogspot.com/2018/12/rootme-weak-password.html
https://slowtrado.tistory.com/23
