https://raw.githubusercontent.com/CodeAbbey/master/FibonacciDivisibility.cpp
https://raw.githubusercontent.com/javilag/codeAbbeyChalls/master/Challs/Go/069.go
https://raw.githubusercontent.com/igor-kutepov/codeabbey/master/src/main/java/com/kutepov/samples/codeabbey/FibonacciDivisibility.java
https://raw.githubusercontent.com/ArnoldM904/CodeAbbey_Solutions/master/Python/id069-Fibonacci_Divisibility.py
https://gitlab.com/CodeArtisan/codeabbey/raw/master/problem_69/solution.rkt
https://raw.githubusercontent.com/mmcdon20/code_abbey/master/src/main/scala/Abbey069.scala
https://raw.githubusercontent.com/JesseClarkND/codeabbey_in_C-NET/master/Fibonacci%20Divisibility
