https://www.youtube.com/watch?v=bV_gr0hB1AA&t=45s
https://github.com/Macmod/pwnable-writeups/blob/master/toddlers/passcode.md
https://raw.githubusercontent.com/USCGA/writeups/master/pwnable.kr/flag/README.md
https://gist.github.com/ihciah/0ca68da3e32e38818bb9#5-passcode
