https://raw.githubusercontent.com/pascal-bourut/codeeval-challenges/master/moderate/119%20-%20Chain%20Inspection/119.js
https://raw.githubusercontent.com/pascal-bourut/codeeval-challenges/master/moderate/119%20-%20Chain%20Inspection/119.php
https://raw.githubusercontent.com/mpillar/codeeval/master/1-moderate/chain-inspection/main.py
https://raw.githubusercontent.com/nikai3d/ce-challenges/master/moderate/chain_inspection.rb
https://raw.githubusercontent.com/nikai3d/ce-challenges/master/moderate/chain_inspection.lua
https://raw.githubusercontent.com/nikai3d/ce-challenges/master/moderate/chain_inspection.go
https://raw.githubusercontent.com/nikai3d/ce-challenges/master/moderate/chain_inspection.c
https://raw.githubusercontent.com/TheCK/codeChallenges/master/codeEval/src/main/java/org/ck/codeEval/medium/chainInspection/Main.java
