https://raw.githubusercontent.com/nikai3d/ce-challenges/master/moderate/suggest_groups.go
https://raw.githubusercontent.com/TheCK/codeChallenges/master/codeEval/src/main/java/org/ck/codeEval/medium/suggestGroups/Main.java
https://raw.githubusercontent.com/mpillar/codeeval/master/1-moderate/suggest-groups/main.py
