https://raw.githubusercontent.com/Waqar-107/Codeforces/master/A-set/246A.Buggy%20sorting.py
https://raw.githubusercontent.com/AkashChandrakar/codeforces-solutions/master/c%2B%2B/246-A-11535951.cpp
https://raw.githubusercontent.com/o-panda-o/MySolutions/master/Sorting/Code_246A_BuggySorting.java
