https://raw.githubusercontent.com/tothi/ctfs/master/seccon-quals-ctf-2016/randomware/decrypt.py
https://gist.githubusercontent.com/Lense/421d39318745549a0f26aef44541c8ef/raw/bfd1fdad22e2b622b89802a6bc4fe1a03cdaa9fe/randomware.md

