https://github.com/bakerhamilton/Coderbyte-solutions/raw/master/LetterChanges.java
https://github.com/bolducp/coderbyte/raw/master/easy/04_letter_changes.py
https://raw.githubusercontent.com/ZLester/Coderbyte-Solutions/master/Easy/04%20-%20Letter%20Changes.js
https://raw.githubusercontent.com/Nigelmnz/CoderbyteSolutions/master/04-LetterChanges/4.hs
https://raw.githubusercontent.com/aesee/cpp-challenges/master/LetterChanges.cpp
https://raw.githubusercontent.com/Samleo8/CoderByte/master/Easy/LetterChanges.c
https://raw.githubusercontent.com/juyongsim/coderbyte/master/LetterChanges.rb
