https://gist.githubusercontent.com/yuheiomori/8156153/raw/77671deb345091662f2bb213719e1386f99db535/main.go
https://raw.githubusercontent.com/SedaKunda/CodeEval/master/Easy-Level/SwapElements.java
https://raw.githubusercontent.com/pascal-bourut/codeeval-challenges/master/easy/112%20-%20Swap%20Elements/112.js
https://raw.githubusercontent.com/pascal-bourut/codeeval-challenges/master/easy/112%20-%20Swap%20Elements/112.php
